%YAML 1.1
%TAG !u! tag:unity3d.com,2011:
--- !u!29 &1
OcclusionCullingSettings:
  m_ObjectHideFlags: 0
  serializedVersion: 2
  m_OcclusionBakeSettings:
    smallestOccluder: 5
    smallestHole: 0.25
    backfaceThreshold: 100
  m_SceneGUID: 00000000000000000000000000000000
  m_OcclusionCullingData: {fileID: 0}
--- !u!104 &2
RenderSettings:
  m_ObjectHideFlags: 0
  serializedVersion: 9
  m_Fog: 0
  m_FogColor: {r: 0.5, g: 0.5, b: 0.5, a: 1}
  m_FogMode: 3
  m_FogDensity: 0.01
  m_LinearFogStart: 0
  m_LinearFogEnd: 300
  m_AmbientSkyColor: {r: 0.2, g: 0.2, b: 0.2, a: 1}
  m_AmbientEquatorColor: {r: 0.2, g: 0.2, b: 0.2, a: 1}
  m_AmbientGroundColor: {r: 0.2, g: 0.2, b: 0.2, a: 1}
  m_AmbientIntensity: 1
  m_AmbientMode: 3
  m_SubtractiveShadowColor: {r: 0.42, g: 0.478, b: 0.627, a: 1}
  m_SkyboxMaterial: {fileID: 0}
  m_HaloStrength: 0.5
  m_FlareStrength: 1
  m_FlareFadeSpeed: 3
  m_HaloTexture: {fileID: 0}
  m_SpotCookie: {fileID: 10001, guid: 0000000000000000e000000000000000, type: 0}
  m_DefaultReflectionMode: 0
  m_DefaultReflectionResolution: 128
  m_ReflectionBounces: 1
  m_ReflectionIntensity: 1
  m_CustomReflection: {fileID: 0}
  m_Sun: {fileID: 0}
  m_IndirectSpecularColor: {r: 0, g: 0, b: 0, a: 1}
  m_UseRadianceAmbientProbe: 0
--- !u!157 &4
LightmapSettings:
  m_ObjectHideFlags: 0
  serializedVersion: 12
  m_GIWorkflowMode: 1
  m_GISettings:
    serializedVersion: 2
    m_BounceScale: 1
    m_IndirectOutputScale: 1
    m_AlbedoBoost: 1
    m_EnvironmentLightingMode: 0
    m_EnableBakedLightmaps: 1
    m_EnableRealtimeLightmaps: 0
  m_LightmapEditorSettings:
    serializedVersion: 12
    m_Resolution: 1
    m_BakeResolution: 50
    m_AtlasSize: 1024
    m_AO: 0
    m_AOMaxDistance: 1
    m_CompAOExponent: 0
    m_CompAOExponentDirect: 0
    m_ExtractAmbientOcclusion: 0
    m_Padding: 2
    m_LightmapParameters: {fileID: 0}
    m_LightmapsBakeMode: 1
    m_TextureCompression: 0
    m_FinalGather: 0
    m_FinalGatherFiltering: 1
    m_FinalGatherRayCount: 1024
    m_ReflectionCompression: 2
    m_MixedBakeMode: 1
    m_BakeBackend: 0
    m_PVRSampling: 1
    m_PVRDirectSampleCount: 32
    m_PVRSampleCount: 512
    m_PVRBounces: 2
    m_PVREnvironmentSampleCount: 512
    m_PVREnvironmentReferencePointCount: 2048
    m_PVRFilteringMode: 0
    m_PVRDenoiserTypeDirect: 0
    m_PVRDenoiserTypeIndirect: 0
    m_PVRDenoiserTypeAO: 0
    m_PVRFilterTypeDirect: 0
    m_PVRFilterTypeIndirect: 0
    m_PVRFilterTypeAO: 0
    m_PVREnvironmentMIS: 0
    m_PVRCulling: 1
    m_PVRFilteringGaussRadiusDirect: 1
    m_PVRFilteringGaussRadiusIndirect: 5
    m_PVRFilteringGaussRadiusAO: 2
    m_PVRFilteringAtrousPositionSigmaDirect: 0.5
    m_PVRFilteringAtrousPositionSigmaIndirect: 2
    m_PVRFilteringAtrousPositionSigmaAO: 1
    m_ExportTrainingData: 0
    m_TrainingDataDestination: TrainingData
    m_LightProbeSampleCountMultiplier: 4
  m_LightingDataAsset: {fileID: 0}
  m_LightingSettings: {fileID: 759844777}
--- !u!196 &5
NavMeshSettings:
  serializedVersion: 2
  m_ObjectHideFlags: 0
  m_BuildSettings:
    serializedVersion: 2
    agentTypeID: 0
    agentRadius: 0.5
    agentHeight: 2
    agentSlope: 45
    agentClimb: 0.4
    ledgeDropHeight: 0
    maxJumpAcrossDistance: 0
    minRegionArea: 2
    manualCellSize: 0
    cellSize: 0.16666666
    manualTileSize: 0
    tileSize: 256
    accuratePlacement: 0
    maxJobWorkers: 0
    preserveTilesOutsideBounds: 0
    debug:
      m_Flags: 0
  m_NavMeshData: {fileID: 0}
--- !u!1 &40852873
GameObject:
  m_ObjectHideFlags: 0
  m_CorrespondingSourceObject: {fileID: 0}
  m_PrefabInstance: {fileID: 0}
  m_PrefabAsset: {fileID: 0}
  serializedVersion: 6
  m_Component:
  - component: {fileID: 40852874}
  - component: {fileID: 40852876}
  - component: {fileID: 40852875}
  m_Layer: 5
  m_Name: MB_Layout
  m_TagString: Untagged
  m_Icon: {fileID: 0}
  m_NavMeshLayer: 0
  m_StaticEditorFlags: 0
  m_IsActive: 1
--- !u!224 &40852874
RectTransform:
  m_ObjectHideFlags: 0
  m_CorrespondingSourceObject: {fileID: 0}
  m_PrefabInstance: {fileID: 0}
  m_PrefabAsset: {fileID: 0}
  m_GameObject: {fileID: 40852873}
  m_LocalRotation: {x: 0, y: 0, z: 0, w: 1}
  m_LocalPosition: {x: 0, y: 0, z: 0}
  m_LocalScale: {x: 1, y: 1, z: 1}
  m_Children: []
  m_Father: {fileID: 2073085177}
  m_RootOrder: 2
  m_LocalEulerAnglesHint: {x: 0, y: 0, z: 0}
  m_AnchorMin: {x: 0, y: 0}
  m_AnchorMax: {x: 1, y: 1}
  m_AnchoredPosition: {x: 0, y: 0}
  m_SizeDelta: {x: 0, y: 0}
  m_Pivot: {x: 0.5, y: 0.5}
--- !u!114 &40852875
MonoBehaviour:
  m_ObjectHideFlags: 0
  m_CorrespondingSourceObject: {fileID: 0}
  m_PrefabInstance: {fileID: 0}
  m_PrefabAsset: {fileID: 0}
  m_GameObject: {fileID: 40852873}
  m_Enabled: 1
  m_EditorHideFlags: 0
  m_Script: {fileID: 11500000, guid: fe87c0e1cc204ed48ad3b37840f39efc, type: 3}
  m_Name: 
  m_EditorClassIdentifier: 
  m_Material: {fileID: 0}
  m_Color: {r: 1, g: 1, b: 1, a: 1}
  m_RaycastTarget: 1
  m_RaycastPadding: {x: 0, y: 0, z: 0, w: 0}
  m_Maskable: 1
  m_OnCullStateChanged:
    m_PersistentCalls:
      m_Calls: []
  m_Sprite: {fileID: 21300000, guid: 194fc059b57cea94498bd863f245d7cf, type: 3}
  m_Type: 0
  m_PreserveAspect: 0
  m_FillCenter: 1
  m_FillMethod: 4
  m_FillAmount: 1
  m_FillClockwise: 1
  m_FillOrigin: 0
  m_UseSpriteMesh: 0
  m_PixelsPerUnitMultiplier: 1
--- !u!222 &40852876
CanvasRenderer:
  m_ObjectHideFlags: 0
  m_CorrespondingSourceObject: {fileID: 0}
  m_PrefabInstance: {fileID: 0}
  m_PrefabAsset: {fileID: 0}
  m_GameObject: {fileID: 40852873}
  m_CullTransparentMesh: 1
--- !u!1001 &379377900
PrefabInstance:
  m_ObjectHideFlags: 0
  serializedVersion: 2
  m_Modification:
    m_TransformParent: {fileID: 2073085177}
    m_Modifications:
    - target: {fileID: 154094, guid: fe9bfb5044c0cc646baba1ad7d354100, type: 3}
      propertyPath: m_IsActive
      value: 1
      objectReference: {fileID: 0}
    - target: {fileID: 180032, guid: fe9bfb5044c0cc646baba1ad7d354100, type: 3}
      propertyPath: m_Name
      value: Book
      objectReference: {fileID: 0}
    - target: {fileID: 193380, guid: fe9bfb5044c0cc646baba1ad7d354100, type: 3}
      propertyPath: m_IsActive
      value: 1
      objectReference: {fileID: 0}
    - target: {fileID: 11415212, guid: fe9bfb5044c0cc646baba1ad7d354100, type: 3}
      propertyPath: canvas
      value: 
      objectReference: {fileID: 2073085180}
    - target: {fileID: 11415212, guid: fe9bfb5044c0cc646baba1ad7d354100, type: 3}
      propertyPath: background
      value: 
      objectReference: {fileID: 21300000, guid: a12645865e9132140890593dadc2d415, type: 3}
    - target: {fileID: 11415212, guid: fe9bfb5044c0cc646baba1ad7d354100, type: 3}
      propertyPath: bookPages.Array.size
      value: 65
      objectReference: {fileID: 0}
    - target: {fileID: 11415212, guid: fe9bfb5044c0cc646baba1ad7d354100, type: 3}
      propertyPath: bookPages.Array.data[0]
      value: 
      objectReference: {fileID: 21300000, guid: b5a765d67e4d1f14484815b5f8e8ace7, type: 3}
    - target: {fileID: 11415212, guid: fe9bfb5044c0cc646baba1ad7d354100, type: 3}
      propertyPath: bookPages.Array.data[1]
      value: 
      objectReference: {fileID: 21300000, guid: 320cb7ef58739234880fbeb475ae6092, type: 3}
    - target: {fileID: 11415212, guid: fe9bfb5044c0cc646baba1ad7d354100, type: 3}
      propertyPath: bookPages.Array.data[2]
      value: 
      objectReference: {fileID: 21300000, guid: 282a991d4909c8346b0c75a6131e9e2e, type: 3}
    - target: {fileID: 11415212, guid: fe9bfb5044c0cc646baba1ad7d354100, type: 3}
      propertyPath: bookPages.Array.data[3]
      value: 
      objectReference: {fileID: 21300000, guid: 731d6a81c160c2c4b9ff4fb933cf896f, type: 3}
    - target: {fileID: 11415212, guid: fe9bfb5044c0cc646baba1ad7d354100, type: 3}
      propertyPath: bookPages.Array.data[4]
      value: 
      objectReference: {fileID: 21300000, guid: 0484aa56571f6a245a81c910de338b49, type: 3}
    - target: {fileID: 11415212, guid: fe9bfb5044c0cc646baba1ad7d354100, type: 3}
      propertyPath: bookPages.Array.data[5]
      value: 
      objectReference: {fileID: 21300000, guid: 6a22179965292f146a44c244b1b1e859, type: 3}
    - target: {fileID: 11415212, guid: fe9bfb5044c0cc646baba1ad7d354100, type: 3}
      propertyPath: bookPages.Array.data[6]
      value: 
      objectReference: {fileID: 21300000, guid: de63731608a2573459358ddaaabb951c, type: 3}
    - target: {fileID: 11415212, guid: fe9bfb5044c0cc646baba1ad7d354100, type: 3}
      propertyPath: bookPages.Array.data[8]
      value: 
      objectReference: {fileID: 21300000, guid: a8371807677c9624f95debc13138fe33, type: 3}
    - target: {fileID: 11415212, guid: fe9bfb5044c0cc646baba1ad7d354100, type: 3}
      propertyPath: bookPages.Array.data[9]
      value: 
      objectReference: {fileID: 21300000, guid: a8371807677c9624f95debc13138fe33, type: 3}
    - target: {fileID: 11415212, guid: fe9bfb5044c0cc646baba1ad7d354100, type: 3}
      propertyPath: bookPages.Array.data[10]
      value: 
      objectReference: {fileID: 21300000, guid: a8371807677c9624f95debc13138fe33, type: 3}
    - target: {fileID: 11415212, guid: fe9bfb5044c0cc646baba1ad7d354100, type: 3}
      propertyPath: bookPages.Array.data[11]
      value: 
      objectReference: {fileID: 21300000, guid: a8371807677c9624f95debc13138fe33, type: 3}
    - target: {fileID: 11415212, guid: fe9bfb5044c0cc646baba1ad7d354100, type: 3}
      propertyPath: bookPages.Array.data[12]
      value: 
      objectReference: {fileID: 21300000, guid: a8371807677c9624f95debc13138fe33, type: 3}
    - target: {fileID: 11415212, guid: fe9bfb5044c0cc646baba1ad7d354100, type: 3}
      propertyPath: bookPages.Array.data[13]
      value: 
      objectReference: {fileID: 21300000, guid: a8371807677c9624f95debc13138fe33, type: 3}
    - target: {fileID: 11415212, guid: fe9bfb5044c0cc646baba1ad7d354100, type: 3}
      propertyPath: bookPages.Array.data[14]
      value: 
      objectReference: {fileID: 21300000, guid: a8371807677c9624f95debc13138fe33, type: 3}
    - target: {fileID: 11415212, guid: fe9bfb5044c0cc646baba1ad7d354100, type: 3}
      propertyPath: bookPages.Array.data[15]
      value: 
      objectReference: {fileID: 21300000, guid: a8371807677c9624f95debc13138fe33, type: 3}
    - target: {fileID: 11415212, guid: fe9bfb5044c0cc646baba1ad7d354100, type: 3}
      propertyPath: bookPages.Array.data[16]
      value: 
      objectReference: {fileID: 21300000, guid: a8371807677c9624f95debc13138fe33, type: 3}
    - target: {fileID: 11415212, guid: fe9bfb5044c0cc646baba1ad7d354100, type: 3}
      propertyPath: bookPages.Array.data[17]
      value: 
      objectReference: {fileID: 21300000, guid: a8371807677c9624f95debc13138fe33, type: 3}
    - target: {fileID: 11415212, guid: fe9bfb5044c0cc646baba1ad7d354100, type: 3}
      propertyPath: bookPages.Array.data[18]
      value: 
      objectReference: {fileID: 21300000, guid: a8371807677c9624f95debc13138fe33, type: 3}
    - target: {fileID: 11415212, guid: fe9bfb5044c0cc646baba1ad7d354100, type: 3}
      propertyPath: bookPages.Array.data[19]
      value: 
      objectReference: {fileID: 21300000, guid: a8371807677c9624f95debc13138fe33, type: 3}
    - target: {fileID: 11415212, guid: fe9bfb5044c0cc646baba1ad7d354100, type: 3}
      propertyPath: bookPages.Array.data[20]
      value: 
      objectReference: {fileID: 21300000, guid: a8371807677c9624f95debc13138fe33, type: 3}
    - target: {fileID: 11415212, guid: fe9bfb5044c0cc646baba1ad7d354100, type: 3}
      propertyPath: bookPages.Array.data[21]
      value: 
      objectReference: {fileID: 21300000, guid: a8371807677c9624f95debc13138fe33, type: 3}
    - target: {fileID: 11415212, guid: fe9bfb5044c0cc646baba1ad7d354100, type: 3}
      propertyPath: bookPages.Array.data[22]
      value: 
      objectReference: {fileID: 21300000, guid: a8371807677c9624f95debc13138fe33, type: 3}
    - target: {fileID: 11415212, guid: fe9bfb5044c0cc646baba1ad7d354100, type: 3}
      propertyPath: bookPages.Array.data[23]
      value: 
      objectReference: {fileID: 21300000, guid: a8371807677c9624f95debc13138fe33, type: 3}
    - target: {fileID: 11415212, guid: fe9bfb5044c0cc646baba1ad7d354100, type: 3}
      propertyPath: bookPages.Array.data[24]
      value: 
      objectReference: {fileID: 21300000, guid: a8371807677c9624f95debc13138fe33, type: 3}
    - target: {fileID: 11415212, guid: fe9bfb5044c0cc646baba1ad7d354100, type: 3}
      propertyPath: bookPages.Array.data[25]
      value: 
      objectReference: {fileID: 21300000, guid: a8371807677c9624f95debc13138fe33, type: 3}
    - target: {fileID: 11415212, guid: fe9bfb5044c0cc646baba1ad7d354100, type: 3}
      propertyPath: bookPages.Array.data[26]
      value: 
      objectReference: {fileID: 21300000, guid: a8371807677c9624f95debc13138fe33, type: 3}
    - target: {fileID: 11415212, guid: fe9bfb5044c0cc646baba1ad7d354100, type: 3}
      propertyPath: bookPages.Array.data[27]
      value: 
      objectReference: {fileID: 21300000, guid: a8371807677c9624f95debc13138fe33, type: 3}
    - target: {fileID: 11415212, guid: fe9bfb5044c0cc646baba1ad7d354100, type: 3}
      propertyPath: bookPages.Array.data[28]
      value: 
      objectReference: {fileID: 21300000, guid: a8371807677c9624f95debc13138fe33, type: 3}
    - target: {fileID: 11415212, guid: fe9bfb5044c0cc646baba1ad7d354100, type: 3}
      propertyPath: bookPages.Array.data[29]
      value: 
      objectReference: {fileID: 21300000, guid: a8371807677c9624f95debc13138fe33, type: 3}
    - target: {fileID: 11415212, guid: fe9bfb5044c0cc646baba1ad7d354100, type: 3}
      propertyPath: bookPages.Array.data[30]
      value: 
      objectReference: {fileID: 21300000, guid: a8371807677c9624f95debc13138fe33, type: 3}
    - target: {fileID: 11415212, guid: fe9bfb5044c0cc646baba1ad7d354100, type: 3}
      propertyPath: bookPages.Array.data[31]
      value: 
      objectReference: {fileID: 21300000, guid: a8371807677c9624f95debc13138fe33, type: 3}
    - target: {fileID: 11415212, guid: fe9bfb5044c0cc646baba1ad7d354100, type: 3}
      propertyPath: bookPages.Array.data[32]
      value: 
      objectReference: {fileID: 21300000, guid: a8371807677c9624f95debc13138fe33, type: 3}
    - target: {fileID: 11415212, guid: fe9bfb5044c0cc646baba1ad7d354100, type: 3}
      propertyPath: bookPages.Array.data[33]
      value: 
      objectReference: {fileID: 21300000, guid: a8371807677c9624f95debc13138fe33, type: 3}
    - target: {fileID: 11415212, guid: fe9bfb5044c0cc646baba1ad7d354100, type: 3}
      propertyPath: bookPages.Array.data[34]
      value: 
      objectReference: {fileID: 21300000, guid: a8371807677c9624f95debc13138fe33, type: 3}
    - target: {fileID: 11415212, guid: fe9bfb5044c0cc646baba1ad7d354100, type: 3}
      propertyPath: bookPages.Array.data[35]
      value: 
      objectReference: {fileID: 21300000, guid: a8371807677c9624f95debc13138fe33, type: 3}
    - target: {fileID: 11415212, guid: fe9bfb5044c0cc646baba1ad7d354100, type: 3}
      propertyPath: bookPages.Array.data[36]
      value: 
      objectReference: {fileID: 21300000, guid: a8371807677c9624f95debc13138fe33, type: 3}
    - target: {fileID: 11415212, guid: fe9bfb5044c0cc646baba1ad7d354100, type: 3}
      propertyPath: bookPages.Array.data[37]
      value: 
      objectReference: {fileID: 21300000, guid: a8371807677c9624f95debc13138fe33, type: 3}
    - target: {fileID: 11415212, guid: fe9bfb5044c0cc646baba1ad7d354100, type: 3}
      propertyPath: bookPages.Array.data[38]
      value: 
      objectReference: {fileID: 21300000, guid: a8371807677c9624f95debc13138fe33, type: 3}
    - target: {fileID: 11415212, guid: fe9bfb5044c0cc646baba1ad7d354100, type: 3}
      propertyPath: bookPages.Array.data[39]
      value: 
      objectReference: {fileID: 21300000, guid: a8371807677c9624f95debc13138fe33, type: 3}
    - target: {fileID: 11415212, guid: fe9bfb5044c0cc646baba1ad7d354100, type: 3}
      propertyPath: bookPages.Array.data[40]
      value: 
      objectReference: {fileID: 21300000, guid: a8371807677c9624f95debc13138fe33, type: 3}
    - target: {fileID: 11415212, guid: fe9bfb5044c0cc646baba1ad7d354100, type: 3}
      propertyPath: bookPages.Array.data[41]
      value: 
      objectReference: {fileID: 21300000, guid: a8371807677c9624f95debc13138fe33, type: 3}
    - target: {fileID: 11415212, guid: fe9bfb5044c0cc646baba1ad7d354100, type: 3}
      propertyPath: bookPages.Array.data[42]
      value: 
      objectReference: {fileID: 21300000, guid: a8371807677c9624f95debc13138fe33, type: 3}
    - target: {fileID: 11415212, guid: fe9bfb5044c0cc646baba1ad7d354100, type: 3}
      propertyPath: bookPages.Array.data[43]
      value: 
      objectReference: {fileID: 21300000, guid: a8371807677c9624f95debc13138fe33, type: 3}
    - target: {fileID: 11415212, guid: fe9bfb5044c0cc646baba1ad7d354100, type: 3}
      propertyPath: bookPages.Array.data[44]
      value: 
      objectReference: {fileID: 21300000, guid: a8371807677c9624f95debc13138fe33, type: 3}
    - target: {fileID: 11415212, guid: fe9bfb5044c0cc646baba1ad7d354100, type: 3}
      propertyPath: bookPages.Array.data[45]
      value: 
      objectReference: {fileID: 21300000, guid: a8371807677c9624f95debc13138fe33, type: 3}
    - target: {fileID: 11415212, guid: fe9bfb5044c0cc646baba1ad7d354100, type: 3}
      propertyPath: bookPages.Array.data[46]
      value: 
      objectReference: {fileID: 21300000, guid: a8371807677c9624f95debc13138fe33, type: 3}
    - target: {fileID: 11415212, guid: fe9bfb5044c0cc646baba1ad7d354100, type: 3}
      propertyPath: bookPages.Array.data[47]
      value: 
      objectReference: {fileID: 21300000, guid: a8371807677c9624f95debc13138fe33, type: 3}
    - target: {fileID: 11415212, guid: fe9bfb5044c0cc646baba1ad7d354100, type: 3}
      propertyPath: bookPages.Array.data[48]
      value: 
      objectReference: {fileID: 21300000, guid: a8371807677c9624f95debc13138fe33, type: 3}
    - target: {fileID: 11415212, guid: fe9bfb5044c0cc646baba1ad7d354100, type: 3}
      propertyPath: bookPages.Array.data[49]
      value: 
      objectReference: {fileID: 21300000, guid: a8371807677c9624f95debc13138fe33, type: 3}
    - target: {fileID: 11415212, guid: fe9bfb5044c0cc646baba1ad7d354100, type: 3}
      propertyPath: bookPages.Array.data[50]
      value: 
      objectReference: {fileID: 21300000, guid: a8371807677c9624f95debc13138fe33, type: 3}
    - target: {fileID: 11415212, guid: fe9bfb5044c0cc646baba1ad7d354100, type: 3}
      propertyPath: bookPages.Array.data[51]
      value: 
      objectReference: {fileID: 21300000, guid: a8371807677c9624f95debc13138fe33, type: 3}
    - target: {fileID: 11415212, guid: fe9bfb5044c0cc646baba1ad7d354100, type: 3}
      propertyPath: bookPages.Array.data[52]
      value: 
      objectReference: {fileID: 21300000, guid: a8371807677c9624f95debc13138fe33, type: 3}
    - target: {fileID: 11415212, guid: fe9bfb5044c0cc646baba1ad7d354100, type: 3}
      propertyPath: bookPages.Array.data[53]
      value: 
      objectReference: {fileID: 21300000, guid: a8371807677c9624f95debc13138fe33, type: 3}
    - target: {fileID: 11415212, guid: fe9bfb5044c0cc646baba1ad7d354100, type: 3}
      propertyPath: bookPages.Array.data[54]
      value: 
      objectReference: {fileID: 21300000, guid: a8371807677c9624f95debc13138fe33, type: 3}
    - target: {fileID: 11415212, guid: fe9bfb5044c0cc646baba1ad7d354100, type: 3}
      propertyPath: bookPages.Array.data[55]
      value: 
      objectReference: {fileID: 21300000, guid: a8371807677c9624f95debc13138fe33, type: 3}
    - target: {fileID: 11415212, guid: fe9bfb5044c0cc646baba1ad7d354100, type: 3}
      propertyPath: bookPages.Array.data[56]
      value: 
      objectReference: {fileID: 21300000, guid: a8371807677c9624f95debc13138fe33, type: 3}
    - target: {fileID: 11415212, guid: fe9bfb5044c0cc646baba1ad7d354100, type: 3}
      propertyPath: bookPages.Array.data[57]
      value: 
      objectReference: {fileID: 21300000, guid: a8371807677c9624f95debc13138fe33, type: 3}
    - target: {fileID: 11415212, guid: fe9bfb5044c0cc646baba1ad7d354100, type: 3}
      propertyPath: bookPages.Array.data[58]
      value: 
      objectReference: {fileID: 21300000, guid: a8371807677c9624f95debc13138fe33, type: 3}
    - target: {fileID: 11415212, guid: fe9bfb5044c0cc646baba1ad7d354100, type: 3}
      propertyPath: bookPages.Array.data[59]
      value: 
      objectReference: {fileID: 21300000, guid: a8371807677c9624f95debc13138fe33, type: 3}
    - target: {fileID: 11415212, guid: fe9bfb5044c0cc646baba1ad7d354100, type: 3}
      propertyPath: bookPages.Array.data[60]
      value: 
      objectReference: {fileID: 21300000, guid: a8371807677c9624f95debc13138fe33, type: 3}
    - target: {fileID: 11415212, guid: fe9bfb5044c0cc646baba1ad7d354100, type: 3}
      propertyPath: bookPages.Array.data[61]
      value: 
      objectReference: {fileID: 21300000, guid: a8371807677c9624f95debc13138fe33, type: 3}
    - target: {fileID: 11415212, guid: fe9bfb5044c0cc646baba1ad7d354100, type: 3}
      propertyPath: bookPages.Array.data[62]
      value: 
      objectReference: {fileID: 21300000, guid: a8371807677c9624f95debc13138fe33, type: 3}
    - target: {fileID: 11415212, guid: fe9bfb5044c0cc646baba1ad7d354100, type: 3}
      propertyPath: bookPages.Array.data[63]
      value: 
      objectReference: {fileID: 21300000, guid: a8371807677c9624f95debc13138fe33, type: 3}
    - target: {fileID: 11415212, guid: fe9bfb5044c0cc646baba1ad7d354100, type: 3}
      propertyPath: bookPages.Array.data[64]
      value: 
      objectReference: {fileID: 21300000, guid: a8371807677c9624f95debc13138fe33, type: 3}
    - target: {fileID: 22433904, guid: fe9bfb5044c0cc646baba1ad7d354100, type: 3}
      propertyPath: m_Pivot.y
      value: 0.21379319
      objectReference: {fileID: 0}
    - target: {fileID: 22433904, guid: fe9bfb5044c0cc646baba1ad7d354100, type: 3}
      propertyPath: m_SizeDelta.x
      value: 781.9829
      objectReference: {fileID: 0}
    - target: {fileID: 22433904, guid: fe9bfb5044c0cc646baba1ad7d354100, type: 3}
      propertyPath: m_SizeDelta.y
      value: 1828.8303
      objectReference: {fileID: 0}
    - target: {fileID: 22436914, guid: fe9bfb5044c0cc646baba1ad7d354100, type: 3}
      propertyPath: m_SizeDelta.x
      value: 2770.566
      objectReference: {fileID: 0}
    - target: {fileID: 22436914, guid: fe9bfb5044c0cc646baba1ad7d354100, type: 3}
      propertyPath: m_SizeDelta.y
      value: 3619.7998
      objectReference: {fileID: 0}
    - target: {fileID: 22437570, guid: fe9bfb5044c0cc646baba1ad7d354100, type: 3}
      propertyPath: m_SizeDelta.x
      value: 781.9829
      objectReference: {fileID: 0}
    - target: {fileID: 22437570, guid: fe9bfb5044c0cc646baba1ad7d354100, type: 3}
      propertyPath: m_SizeDelta.y
      value: 3619.7998
      objectReference: {fileID: 0}
    - target: {fileID: 22443772, guid: fe9bfb5044c0cc646baba1ad7d354100, type: 3}
      propertyPath: m_Pivot.x
      value: 0.5
      objectReference: {fileID: 0}
    - target: {fileID: 22443772, guid: fe9bfb5044c0cc646baba1ad7d354100, type: 3}
      propertyPath: m_Pivot.y
      value: 0.5
      objectReference: {fileID: 0}
    - target: {fileID: 22443772, guid: fe9bfb5044c0cc646baba1ad7d354100, type: 3}
      propertyPath: m_RootOrder
      value: 1
      objectReference: {fileID: 0}
    - target: {fileID: 22443772, guid: fe9bfb5044c0cc646baba1ad7d354100, type: 3}
      propertyPath: m_AnchorMax.x
      value: 1
      objectReference: {fileID: 0}
    - target: {fileID: 22443772, guid: fe9bfb5044c0cc646baba1ad7d354100, type: 3}
      propertyPath: m_AnchorMax.y
      value: 1
      objectReference: {fileID: 0}
    - target: {fileID: 22443772, guid: fe9bfb5044c0cc646baba1ad7d354100, type: 3}
      propertyPath: m_AnchorMin.x
      value: 0
      objectReference: {fileID: 0}
    - target: {fileID: 22443772, guid: fe9bfb5044c0cc646baba1ad7d354100, type: 3}
      propertyPath: m_AnchorMin.y
      value: 0
      objectReference: {fileID: 0}
    - target: {fileID: 22443772, guid: fe9bfb5044c0cc646baba1ad7d354100, type: 3}
      propertyPath: m_SizeDelta.x
      value: 0
      objectReference: {fileID: 0}
    - target: {fileID: 22443772, guid: fe9bfb5044c0cc646baba1ad7d354100, type: 3}
      propertyPath: m_SizeDelta.y
      value: 6.5999756
      objectReference: {fileID: 0}
    - target: {fileID: 22443772, guid: fe9bfb5044c0cc646baba1ad7d354100, type: 3}
      propertyPath: m_LocalPosition.x
      value: 0
      objectReference: {fileID: 0}
    - target: {fileID: 22443772, guid: fe9bfb5044c0cc646baba1ad7d354100, type: 3}
      propertyPath: m_LocalPosition.y
      value: 0
      objectReference: {fileID: 0}
    - target: {fileID: 22443772, guid: fe9bfb5044c0cc646baba1ad7d354100, type: 3}
      propertyPath: m_LocalPosition.z
      value: 0
      objectReference: {fileID: 0}
    - target: {fileID: 22443772, guid: fe9bfb5044c0cc646baba1ad7d354100, type: 3}
      propertyPath: m_LocalRotation.w
      value: 1
      objectReference: {fileID: 0}
    - target: {fileID: 22443772, guid: fe9bfb5044c0cc646baba1ad7d354100, type: 3}
      propertyPath: m_LocalRotation.x
      value: 0
      objectReference: {fileID: 0}
    - target: {fileID: 22443772, guid: fe9bfb5044c0cc646baba1ad7d354100, type: 3}
      propertyPath: m_LocalRotation.y
      value: 0
      objectReference: {fileID: 0}
    - target: {fileID: 22443772, guid: fe9bfb5044c0cc646baba1ad7d354100, type: 3}
      propertyPath: m_LocalRotation.z
      value: 0
      objectReference: {fileID: 0}
    - target: {fileID: 22443772, guid: fe9bfb5044c0cc646baba1ad7d354100, type: 3}
      propertyPath: m_AnchoredPosition.x
      value: 0.0045166016
      objectReference: {fileID: 0}
    - target: {fileID: 22443772, guid: fe9bfb5044c0cc646baba1ad7d354100, type: 3}
      propertyPath: m_AnchoredPosition.y
      value: 0
      objectReference: {fileID: 0}
    - target: {fileID: 22443772, guid: fe9bfb5044c0cc646baba1ad7d354100, type: 3}
      propertyPath: m_LocalEulerAnglesHint.x
      value: 0
      objectReference: {fileID: 0}
    - target: {fileID: 22443772, guid: fe9bfb5044c0cc646baba1ad7d354100, type: 3}
      propertyPath: m_LocalEulerAnglesHint.y
      value: 0
      objectReference: {fileID: 0}
    - target: {fileID: 22443772, guid: fe9bfb5044c0cc646baba1ad7d354100, type: 3}
      propertyPath: m_LocalEulerAnglesHint.z
      value: 0
      objectReference: {fileID: 0}
    - target: {fileID: 22488492, guid: fe9bfb5044c0cc646baba1ad7d354100, type: 3}
      propertyPath: m_Pivot.y
      value: 0.21379319
      objectReference: {fileID: 0}
    - target: {fileID: 22488492, guid: fe9bfb5044c0cc646baba1ad7d354100, type: 3}
      propertyPath: m_SizeDelta.x
      value: 781.9829
      objectReference: {fileID: 0}
    - target: {fileID: 22488492, guid: fe9bfb5044c0cc646baba1ad7d354100, type: 3}
      propertyPath: m_SizeDelta.y
      value: 1828.8303
      objectReference: {fileID: 0}
    m_RemovedComponents: []
  m_SourcePrefab: {fileID: 100100000, guid: fe9bfb5044c0cc646baba1ad7d354100, type: 3}
--- !u!850595691 &759844777
LightingSettings:
  m_ObjectHideFlags: 0
  m_CorrespondingSourceObject: {fileID: 0}
  m_PrefabInstance: {fileID: 0}
  m_PrefabAsset: {fileID: 0}
  m_Name: Settings.lighting
  serializedVersion: 3
  m_GIWorkflowMode: 1
  m_EnableBakedLightmaps: 1
  m_EnableRealtimeLightmaps: 0
  m_RealtimeEnvironmentLighting: 1
  m_BounceScale: 1
  m_AlbedoBoost: 1
  m_IndirectOutputScale: 1
  m_UsingShadowmask: 0
  m_BakeBackend: 0
  m_LightmapMaxSize: 1024
  m_BakeResolution: 50
  m_Padding: 2
  m_TextureCompression: 0
  m_AO: 0
  m_AOMaxDistance: 1
  m_CompAOExponent: 0
  m_CompAOExponentDirect: 0
  m_ExtractAO: 0
  m_MixedBakeMode: 1
  m_LightmapsBakeMode: 1
  m_FilterMode: 1
  m_LightmapParameters: {fileID: 15204, guid: 0000000000000000f000000000000000, type: 0}
  m_ExportTrainingData: 0
  m_TrainingDataDestination: TrainingData
  m_RealtimeResolution: 1
  m_ForceWhiteAlbedo: 0
  m_ForceUpdates: 0
  m_FinalGather: 0
  m_FinalGatherRayCount: 1024
  m_FinalGatherFiltering: 1
  m_PVRCulling: 1
  m_PVRSampling: 1
  m_PVRDirectSampleCount: 32
  m_PVRSampleCount: 512
  m_PVREnvironmentSampleCount: 512
  m_PVREnvironmentReferencePointCount: 2048
  m_LightProbeSampleCountMultiplier: 4
  m_PVRBounces: 2
  m_PVRMinBounces: 2
  m_PVREnvironmentMIS: 0
  m_PVRFilteringMode: 0
  m_PVRDenoiserTypeDirect: 0
  m_PVRDenoiserTypeIndirect: 0
  m_PVRDenoiserTypeAO: 0
  m_PVRFilterTypeDirect: 0
  m_PVRFilterTypeIndirect: 0
  m_PVRFilterTypeAO: 0
  m_PVRFilteringGaussRadiusDirect: 1
  m_PVRFilteringGaussRadiusIndirect: 5
  m_PVRFilteringGaussRadiusAO: 2
  m_PVRFilteringAtrousPositionSigmaDirect: 0.5
  m_PVRFilteringAtrousPositionSigmaIndirect: 2
  m_PVRFilteringAtrousPositionSigmaAO: 1
--- !u!1 &775422200
GameObject:
  m_ObjectHideFlags: 0
  m_CorrespondingSourceObject: {fileID: 0}
  m_PrefabInstance: {fileID: 0}
  m_PrefabAsset: {fileID: 0}
  serializedVersion: 6
  m_Component:
  - component: {fileID: 775422204}
  - component: {fileID: 775422203}
  - component: {fileID: 775422202}
  - component: {fileID: 775422201}
  m_Layer: 0
  m_Name: EventSystem
  m_TagString: Untagged
  m_Icon: {fileID: 0}
  m_NavMeshLayer: 0
  m_StaticEditorFlags: 0
  m_IsActive: 1
--- !u!114 &775422201
MonoBehaviour:
  m_ObjectHideFlags: 0
  m_CorrespondingSourceObject: {fileID: 0}
  m_PrefabInstance: {fileID: 0}
  m_PrefabAsset: {fileID: 0}
  m_GameObject: {fileID: 775422200}
  m_Enabled: 1
  m_EditorHideFlags: 0
  m_Script: {fileID: 11500000, guid: 2d49b7c1bcd2e07499844da127be038d, type: 3}
  m_Name: 
  m_EditorClassIdentifier: 
  m_ForceModuleActive: 0
--- !u!114 &775422202
MonoBehaviour:
  m_ObjectHideFlags: 0
  m_CorrespondingSourceObject: {fileID: 0}
  m_PrefabInstance: {fileID: 0}
  m_PrefabAsset: {fileID: 0}
  m_GameObject: {fileID: 775422200}
  m_Enabled: 1
  m_EditorHideFlags: 0
  m_Script: {fileID: 11500000, guid: 4f231c4fb786f3946a6b90b886c48677, type: 3}
  m_Name: 
  m_EditorClassIdentifier: 
  m_HorizontalAxis: Horizontal
  m_VerticalAxis: Vertical
  m_SubmitButton: Submit
  m_CancelButton: Cancel
  m_InputActionsPerSecond: 10
  m_RepeatDelay: 0.5
  m_ForceModuleActive: 1
--- !u!114 &775422203
MonoBehaviour:
  m_ObjectHideFlags: 0
  m_CorrespondingSourceObject: {fileID: 0}
  m_PrefabInstance: {fileID: 0}
  m_PrefabAsset: {fileID: 0}
  m_GameObject: {fileID: 775422200}
  m_Enabled: 1
  m_EditorHideFlags: 0
  m_Script: {fileID: 11500000, guid: 76c392e42b5098c458856cdf6ecaaaa1, type: 3}
  m_Name: 
  m_EditorClassIdentifier: 
  m_FirstSelected: {fileID: 0}
  m_sendNavigationEvents: 1
  m_DragThreshold: 5
--- !u!4 &775422204
Transform:
  m_ObjectHideFlags: 0
  m_CorrespondingSourceObject: {fileID: 0}
  m_PrefabInstance: {fileID: 0}
  m_PrefabAsset: {fileID: 0}
  m_GameObject: {fileID: 775422200}
  m_LocalRotation: {x: 0, y: 0, z: 0, w: 1}
  m_LocalPosition: {x: 0, y: 0, z: 0}
  m_LocalScale: {x: 1, y: 1, z: 1}
  m_Children: []
  m_Father: {fileID: 0}
  m_RootOrder: 2
  m_LocalEulerAnglesHint: {x: 0, y: 0, z: 0}
--- !u!224 &1346331177 stripped
RectTransform:
  m_CorrespondingSourceObject: {fileID: 22443772, guid: fe9bfb5044c0cc646baba1ad7d354100, type: 3}
  m_PrefabInstance: {fileID: 379377900}
  m_PrefabAsset: {fileID: 0}
--- !u!1 &1591634589
GameObject:
  m_ObjectHideFlags: 0
  m_CorrespondingSourceObject: {fileID: 0}
  m_PrefabInstance: {fileID: 0}
  m_PrefabAsset: {fileID: 0}
  serializedVersion: 6
  m_Component:
  - component: {fileID: 1591634595}
  - component: {fileID: 1591634594}
  - component: {fileID: 1591634592}
  - component: {fileID: 1591634591}
  m_Layer: 0
  m_Name: Main Camera
  m_TagString: MainCamera
  m_Icon: {fileID: 0}
  m_NavMeshLayer: 0
  m_StaticEditorFlags: 0
  m_IsActive: 1
--- !u!81 &1591634591
AudioListener:
  m_ObjectHideFlags: 0
  m_CorrespondingSourceObject: {fileID: 0}
  m_PrefabInstance: {fileID: 0}
  m_PrefabAsset: {fileID: 0}
  m_GameObject: {fileID: 1591634589}
  m_Enabled: 1
--- !u!124 &1591634592
Behaviour:
  m_ObjectHideFlags: 0
  m_CorrespondingSourceObject: {fileID: 0}
  m_PrefabInstance: {fileID: 0}
  m_PrefabAsset: {fileID: 0}
  m_GameObject: {fileID: 1591634589}
  m_Enabled: 1
--- !u!20 &1591634594
Camera:
  m_ObjectHideFlags: 0
  m_CorrespondingSourceObject: {fileID: 0}
  m_PrefabInstance: {fileID: 0}
  m_PrefabAsset: {fileID: 0}
  m_GameObject: {fileID: 1591634589}
  m_Enabled: 1
  serializedVersion: 2
  m_ClearFlags: 4
  m_BackGroundColor: {r: 0.2627451, g: 0.24705884, b: 0.098039225, a: 1}
  m_projectionMatrixMode: 1
  m_GateFitMode: 2
  m_FOVAxisMode: 0
  m_SensorSize: {x: 36, y: 24}
  m_LensShift: {x: 0, y: 0}
  m_FocalLength: 50
  m_NormalizedViewPortRect:
    serializedVersion: 2
    x: 0
    y: 0
    width: 1
    height: 1
  near clip plane: 0.3
  far clip plane: 1000
  field of view: 60
  orthographic: 0
  orthographic size: 5
  m_Depth: -1
  m_CullingMask:
    serializedVersion: 2
    m_Bits: 4294967295
  m_RenderingPath: -1
  m_TargetTexture: {fileID: 0}
  m_TargetDisplay: 0
  m_TargetEye: 3
  m_HDR: 0
  m_AllowMSAA: 1
  m_AllowDynamicResolution: 0
  m_ForceIntoRT: 0
  m_OcclusionCulling: 1
  m_StereoConvergence: 10
  m_StereoSeparation: 0.022
--- !u!4 &1591634595
Transform:
  m_ObjectHideFlags: 0
  m_CorrespondingSourceObject: {fileID: 0}
  m_PrefabInstance: {fileID: 0}
  m_PrefabAsset: {fileID: 0}
  m_GameObject: {fileID: 1591634589}
  m_LocalRotation: {x: 0, y: 0, z: 0, w: 1}
  m_LocalPosition: {x: 0, y: 0, z: 0}
  m_LocalScale: {x: 1, y: 1, z: 1}
  m_Children: []
  m_Father: {fileID: 0}
  m_RootOrder: 0
  m_LocalEulerAnglesHint: {x: 0, y: 0, z: 0}
--- !u!1 &2008264225
GameObject:
  m_ObjectHideFlags: 0
  m_CorrespondingSourceObject: {fileID: 0}
  m_PrefabInstance: {fileID: 0}
  m_PrefabAsset: {fileID: 0}
  serializedVersion: 6
  m_Component:
  - component: {fileID: 2008264226}
  - component: {fileID: 2008264228}
  - component: {fileID: 2008264227}
  m_Layer: 5
  m_Name: Panel
  m_TagString: Untagged
  m_Icon: {fileID: 0}
  m_NavMeshLayer: 0
  m_StaticEditorFlags: 0
  m_IsActive: 0
--- !u!224 &2008264226
RectTransform:
  m_ObjectHideFlags: 0
  m_CorrespondingSourceObject: {fileID: 0}
  m_PrefabInstance: {fileID: 0}
  m_PrefabAsset: {fileID: 0}
  m_GameObject: {fileID: 2008264225}
  m_LocalRotation: {x: 0, y: 0, z: 0, w: 1}
  m_LocalPosition: {x: 0, y: 0, z: 0}
  m_LocalScale: {x: 1, y: 1, z: 1}
  m_Children: []
  m_Father: {fileID: 2073085177}
  m_RootOrder: 0
  m_LocalEulerAnglesHint: {x: 0, y: 0, z: 0}
  m_AnchorMin: {x: 0, y: 0}
  m_AnchorMax: {x: 1, y: 1}
  m_AnchoredPosition: {x: 0, y: 0}
  m_SizeDelta: {x: 0, y: 0}
  m_Pivot: {x: 0.5, y: 0.5}
--- !u!114 &2008264227
MonoBehaviour:
  m_ObjectHideFlags: 0
  m_CorrespondingSourceObject: {fileID: 0}
  m_PrefabInstance: {fileID: 0}
  m_PrefabAsset: {fileID: 0}
  m_GameObject: {fileID: 2008264225}
  m_Enabled: 1
  m_EditorHideFlags: 0
  m_Script: {fileID: 11500000, guid: fe87c0e1cc204ed48ad3b37840f39efc, type: 3}
  m_Name: 
  m_EditorClassIdentifier: 
  m_Material: {fileID: 0}
  m_Color: {r: 1, g: 1, b: 1, a: 1}
  m_RaycastTarget: 1
  m_RaycastPadding: {x: 0, y: 0, z: 0, w: 0}
  m_Maskable: 1
  m_OnCullStateChanged:
    m_PersistentCalls:
      m_Calls: []
  m_Sprite: {fileID: 21300000, guid: b38f1555bc2bc5246a7c1a87e231e51c, type: 3}
  m_Type: 0
  m_PreserveAspect: 0
  m_FillCenter: 1
  m_FillMethod: 4
  m_FillAmount: 1
  m_FillClockwise: 1
  m_FillOrigin: 0
  m_UseSpriteMesh: 0
  m_PixelsPerUnitMultiplier: 1
--- !u!222 &2008264228
CanvasRenderer:
  m_ObjectHideFlags: 0
  m_CorrespondingSourceObject: {fileID: 0}
  m_PrefabInstance: {fileID: 0}
  m_PrefabAsset: {fileID: 0}
  m_GameObject: {fileID: 2008264225}
  m_CullTransparentMesh: 0
--- !u!1 &2073085176
GameObject:
  m_ObjectHideFlags: 0
  m_CorrespondingSourceObject: {fileID: 0}
  m_PrefabInstance: {fileID: 0}
  m_PrefabAsset: {fileID: 0}
  serializedVersion: 6
  m_Component:
  - component: {fileID: 2073085177}
  - component: {fileID: 2073085180}
  - component: {fileID: 2073085179}
  - component: {fileID: 2073085178}
  m_Layer: 5
  m_Name: Canvas
  m_TagString: Untagged
  m_Icon: {fileID: 0}
  m_NavMeshLayer: 0
  m_StaticEditorFlags: 0
  m_IsActive: 1
--- !u!224 &2073085177
RectTransform:
  m_ObjectHideFlags: 0
  m_CorrespondingSourceObject: {fileID: 0}
  m_PrefabInstance: {fileID: 0}
  m_PrefabAsset: {fileID: 0}
  m_GameObject: {fileID: 2073085176}
  m_LocalRotation: {x: 0, y: 0, z: 0, w: 1}
  m_LocalPosition: {x: 0, y: 0, z: 0}
  m_LocalScale: {x: 0, y: 0, z: 0}
  m_Children:
  - {fileID: 2008264226}
  - {fileID: 1346331177}
  - {fileID: 40852874}
  m_Father: {fileID: 0}
  m_RootOrder: 1
  m_LocalEulerAnglesHint: {x: 0, y: 0, z: 0}
  m_AnchorMin: {x: 0, y: 0}
  m_AnchorMax: {x: 0, y: 0}
  m_AnchoredPosition: {x: 0, y: 0}
  m_SizeDelta: {x: 0, y: 0}
  m_Pivot: {x: 0, y: 0}
--- !u!114 &2073085178
MonoBehaviour:
  m_ObjectHideFlags: 0
  m_CorrespondingSourceObject: {fileID: 0}
  m_PrefabInstance: {fileID: 0}
  m_PrefabAsset: {fileID: 0}
  m_GameObject: {fileID: 2073085176}
  m_Enabled: 1
  m_EditorHideFlags: 0
  m_Script: {fileID: 11500000, guid: dc42784cf147c0c48a680349fa168899, type: 3}
  m_Name: 
  m_EditorClassIdentifier: 
  m_IgnoreReversedGraphics: 1
  m_BlockingObjects: 0
  m_BlockingMask:
    serializedVersion: 2
    m_Bits: 4294967295
--- !u!114 &2073085179
MonoBehaviour:
  m_ObjectHideFlags: 0
  m_CorrespondingSourceObject: {fileID: 0}
  m_PrefabInstance: {fileID: 0}
  m_PrefabAsset: {fileID: 0}
  m_GameObject: {fileID: 2073085176}
  m_Enabled: 1
  m_EditorHideFlags: 0
  m_Script: {fileID: 11500000, guid: 0cd44c1031e13a943bb63640046fad76, type: 3}
  m_Name: 
  m_EditorClassIdentifier: 
  m_UiScaleMode: 1
  m_ReferencePixelsPerUnit: 100
  m_ScaleFactor: 1
  m_ReferenceResolution: {x: 1920, y: 1200}
  m_ScreenMatchMode: 0
  m_MatchWidthOrHeight: 0.5
  m_PhysicalUnit: 3
  m_FallbackScreenDPI: 96
  m_DefaultSpriteDPI: 96
  m_DynamicPixelsPerUnit: 1
  m_PresetInfoIsWorld: 0
--- !u!223 &2073085180
Canvas:
  m_ObjectHideFlags: 0
  m_CorrespondingSourceObject: {fileID: 0}
  m_PrefabInstance: {fileID: 0}
  m_PrefabAsset: {fileID: 0}
  m_GameObject: {fileID: 2073085176}
  m_Enabled: 1
  serializedVersion: 3
  m_RenderMode: 0
  m_Camera: {fileID: 1591634594}
  m_PlaneDistance: 10
  m_PixelPerfect: 0
  m_ReceivesEvents: 1
  m_OverrideSorting: 0
  m_OverridePixelPerfect: 0
  m_SortingBucketNormalizedSize: 0
  m_AdditionalShaderChannelsFlag: 25
  m_SortingLayerID: 0
  m_SortingOrder: 0
  m_TargetDisplay: 0
